{
  "executable": "Replacer",
  "splashscreen": {
    "imageFile": ""
  },
  "singleInstance": false,
  "metadata": {
    "name": "Replacer",
    "description": "Replacer is a multiplataform software to easy replace a lot of texts.",
    "homepage": "https://gitlab.com/ReplacerOficial/Replacer",
    "author": {
      "name": "renanrcp",
      "email": "renancamerapinheiro@gmail.com"
    },
    "repository": {
      "type": "git",
      "url": "https://gitlab.com/ReplacerOficial/Replacer"
    } 
  },
  "build": {
    "appId": "com.Replacer.app",
    "productName": "Replacer",
    "copyright": "Copyright © 2020 renanrcp",
    "buildVersion": "1.0.0",
    "compression": "maximum",
    "directories": {
      "output": "../../../bin/Desktop"
    },
    "extraResources": [
      {
        "from": "./bin",
        "to": "bin",
        "filter": ["**/*"]
      }
    ],
    "files": [
      {
        "from": "./ElectronHostHook/node_modules",
        "to": "ElectronHostHook/node_modules",
        "filter": ["**/*"]
      },
      "**/*"
    ],
    "win": {
      "icon": "bin/Assets/icon.ico"
    },
    "linux": {
      "icon": "bin/Assets/icon-linux.png",
      "target": [
        "AppImage",
        "deb",
        "tar.gz"
      ],
      "maintainer": "renanrcp renancamerapinheiro@gmail.com"
    },
    "mac": {
      "icon": "bin/Assets/icon-mac.png"
    }
  }
}